{
  "iisSettings": {
    "windowsAuthentication": false,
    "anonymousAuthentication": true,
    "iisExpress": {
      "applicationUrl": "http://localhost:4596/",
      "sslPort": 0
    }
  },
  "profiles": {
    "IIS Express": {
      "commandName": "IISExpress",
      "launchBrowser": true,
      "launchUrl": "swagger",
      "environmentVariables": {
        "ASPNETCORE_ENVIRONMENT": "Development"
      }
    },
    "VirtualSchool": {
        "commandName": "Project",
        "launchBrowser": true,
        "launchUrl": "swagger",
        "environmentVariables": {
            "ASPNETCORE_ENVIRONMENT": "Development"
        },
        "applicationUrl": "http://localhost:4597/"
    }
  }
}
